Calendar Layout
…
df <- tibble(date= date) ## create a tibble with column date
df <- df %>%
  mutate(wkdy = fct_inorder(weekdays(date, abbreviate=T)), ##day of the week
         wkn = lubridate::isoweek(date), ## Week Number. Starts on Monday.
         mo = month(date, label=T, abbr=T), ## Month (useful if you are creating a calendar for the whole year)
         day = day(date)) %>% #day number (1,29,31, etc.)
  mutate(wkdy = fct_relevel(wkdy,                ##reorder the factor level for plotting, starting on Monday.
                            "Mon", "Tue", "Wed", 
                            "Thu", "Fri", "Sat", 
                            "Sun"))
df

## # A tibble: 30 x 5
##    date       wkdy    wkn mo      day
##    <date>     <fct> <dbl> <ord> <int>
##  1 2020-09-01 Tue      36 Sep       1
##  2 2020-09-02 Wed      36 Sep       2
##  3 2020-09-03 Thu      36 Sep       3
##  4 2020-09-04 Fri      36 Sep       4
##  5 2020-09-05 Sat      36 Sep       5
##  6 2020-09-06 Sun      36 Sep       6
##  7 2020-09-07 Mon      37 Sep       7
##  8 2020-09-08 Tue      37 Sep       8
##  9 2020-09-09 Wed      37 Sep       9
## 10 2020-09-10 Thu      37 Sep      10
## # ... with 20 more rows
…
